%YAML 1.1
%TAG !u! tag:unity3d.com,2011:
--- !u!21 &2100000
Material:
  serializedVersion: 6
  m_ObjectHideFlags: 0
  m_PrefabParentObject: {fileID: 0}
  m_PrefabInternal: {fileID: 0}
  m_Name: Mud
  m_Shader: {fileID: 4800000, guid: 8165be4dd0b12774d80426d906df9c38, type: 3}
  m_ShaderKeywords: LPW_FOAM _EDGEBLEND_ON _EMISSION _LIGHTABS_ON _SHADING_FLAT _WAVES_OFF
    _ZWRITE_ON
  m_LightmapFlags: 1
  m_EnableInstancingVariants: 0
  m_DoubleSidedGI: 0
  m_CustomRenderQueue: 2501
  stringTagMap:
    QUEUE: AlphaTest+50
  disabledShaderPasses: []
  m_SavedProperties:
    serializedVersion: 3
    m_TexEnvs:
    - _BumpTex:
        m_Texture: {fileID: 2800000, guid: 5172883f19560c34db24c164f824d406, type: 3}
        m_Scale: {x: 1, y: 1}
        m_Offset: {x: 0, y: 0}
    - _FresnelTex:
        m_Texture: {fileID: 2800000, guid: bbe71c065be7eca47b24d1e03bf041b3, type: 3}
        m_Scale: {x: 1, y: 1}
        m_Offset: {x: 0, y: 0}
    - _NoiseTex:
        m_Texture: {fileID: 2800000, guid: 6a1c221a7d11eaa4e875ae74a888d906, type: 3}
        m_Scale: {x: 1, y: 1}
        m_Offset: {x: 0, y: 0}
    - _ReflectionTex:
        m_Texture: {fileID: 0}
        m_Scale: {x: 1, y: 1}
        m_Offset: {x: 0, y: 0}
    - _RefractionTex:
        m_Texture: {fileID: 0}
        m_Scale: {x: 1, y: 1}
        m_Offset: {x: 0, y: 0}
    m_Floats:
    - _Absorption: 7
    - _BumpScale: 35
    - _BumpScale_: 35
    - _BumpSpeed: 0.2
    - _Cull: 0
    - _Cull_: 2
    - _Diffuse: 0.7
    - _Direction: 180
    - _Distort: 0
    - _Distortion: 1
    - _EdgeBlend: 1
    - _EnableShadows: 0
    - _FoamScale: 20
    - _FoamSpeed: 0.3
    - _FoamSpread: 1
    - _FresPower: 1.5
    - _HQFoam: 0
    - _Height: 0.02
    - _Height_: 0.02
    - _Length: 3
    - _LightAbs: 1
    - _NormalOffset: 1
    - _Opacity: 0.6
    - _PointLights: 0
    - _RHeight: 0.1
    - _RHeight_: 0.1
    - _RSpeed: 0.3
    - _RSpeed_: 0.3
    - _Reflection: 1.2
    - _Refraction: 2
    - _Scale: 1
    - _Scale_: 1
    - _Shading: 0
    - _Shadow: 0.5
    - _ShoreDistance: 0.1
    - _ShoreIntensity: 0.45
    - _Specular: 140
    - _Speed: 0.5
    - _Speed_: 0.5
    - _Steepness: 0.1
    - _Stretch: 10
    - _TexSize_: 64
    - _Time_: 323.62787
    - _TransformScale_: 1
    - _Waves: 0
    - _ZWrite: 1
    m_Colors:
    - _Color: {r: 0.38235295, g: 0.3036332, b: 0.18555363, a: 1}
    - _DeepColor: {r: 0.19852942, g: 0.12733267, b: 0, a: 1}
    - _Direction_: {r: -1, g: -0.00000008742278, b: -0.3, a: -0.000000026226834}
    - _FresColor: {r: 0.7941176, g: 0.6866782, b: 0.525519, a: 1}
    - _ShoreColor: {r: 0.47794116, g: 0.44885752, b: 0.37251297, a: 0.159}
    - _SpecColor: {r: 0.24264705, g: 0.20302618, b: 0.16057526, a: 1}
    - _Sun: {r: -0.7792486, g: 0.62671506, b: 0.00000008940697, a: 0}
    - _SunColor: {r: 0.9999974, g: 0.95685995, b: 0.8392129, a: 1}
